Text Data – Computational Analysis of Educational Data: A Field Guide Using R
…
Step 3: Tokenize Text and Count Word Frequency

Process the text data by tokenizing words, removing stop words, and counting word occurrences.

# Tokenize text, remove stop words, and count word frequencies
word_frequency <- university_policies |>
  unnest_tokens(word, Stance) |> # Tokenize the 'Stance' column
  anti_join(stop_words) |>       # Remove common stop words
  count(word, sort = TRUE)        # Count and sort words by frequency

word_frequency

# A tibble: 1,108 × 2
   word            n
   <chr>       <int>
 1 ai            124
 2 students      120
 3 chatgpt        80
 4 tools          73
 5 academic       68
 6 policy         35
 7 assignments    34
 8 instructors    34
 9 integrity      33
10 student        32
# ℹ 1,098 more rows
…
Load the GenAI policy stance data from a CSV file. We use the same data as in Section 2.3.

# Load the dataset
university_policies <- read_csv("data/University_GenAI_Policy_Stance.csv")

# Tokenize text, remove stop words, and count word frequencies
word_frequency <- university_policies |>
  unnest_tokens(word, Stance) |> # Tokenize the 'Stance' column
  anti_join(stop_words) |>       # Remove common stop words
  count(word, sort = TRUE)        # Count and sort words by frequency

word_frequency

# A tibble: 1,108 × 2
   word            n
   <chr>       <int>
 1 ai            124
 2 students      120
 3 chatgpt        80
 4 tools          73
 5 academic       68
 6 policy         35
 7 assignments    34
 8 instructors    34
 9 integrity      33
10 student        32
# ℹ 1,098 more rows

Step 3: Tokenize Text Data and Apply Sentiment Dictionary

Tokenize the policy text data to separate individual words. Then, use the Bing sentiment dictionary to label each word as positive or negative.

# Tokenize 'Stance' column and apply Bing sentiment dictionary
sentiment_scores <- word_frequency |>
  inner_join(get_sentiments("bing")) |> # Join with Bing sentiment lexicon
  pivot_wider(names_from = sentiment, values_from = n, values_fill = 0) |>
  mutate(sentiment_score = positive - negative) # Calculate net sentiment score

sentiment_scores

# A tibble: 142 × 4
   word         positive negative sentiment_score
   <chr>           <int>    <int>           <int>
 1 honor              18        0              18
 2 cheating            0       11             -11
 3 dishonesty          0       10             -10
 4 guidance            9        0               9
 5 honesty             7        0               7
 6 intelligence        7        0               7
 7 transparent         7        0               7
 8 violation           0        7              -7
 9 encourage           6        0               6
10 difficult           0        5              -5
# ℹ 132 more rows
…
Step 3: Fit the LDA Model

Fit an LDA model with k = 3 topics.

# Fit the LDA model
lda_model <- LDA(gpt_dtm, k = 3, control = list(seed = 1234))

# View model results
gpt_policy_topics_k3 <- tidy(lda_model, matrix = "beta")

print(gpt_policy_topics_k3)

# A tibble: 3,324 × 3
   topic term        beta
   <int> <chr>      <dbl>
 1     1 ai       0.0565 
 2     2 ai       0.0182 
 3     3 ai       0.0450 
 4     1 tools    0.0455 
 5     2 tools    0.00904
 6     3 tools    0.0136 
 7     1 students 0.0504 
 8     2 students 0.0212 
 9     3 students 0.0446 
10     1 chatgpt  0.0216 
# ℹ 3,314 more rows
…
