Text Data – Computational Analysis of Educational Data: A Field Guide Using R
…
# Load the dataset
university_policies <- read_csv("University_GenAI_Policy_Stance.csv")

Step 3: Tokenize Text and Count Word Frequency

Process the text data by tokenizing words, removing stop words, and counting word occurrences.

# Tokenize text, remove stop words, and count word frequencies
word_frequency <- university_policies %>%
  unnest_tokens(word, Stance) %>%  # Tokenize the 'Policy_Text' column
  anti_join(stop_words) %>%             # Remove common stop words
  count(word, sort = TRUE)              # Count and sort words by frequency
word_frequency

# A tibble: 1,108 × 2
   word            n
   <chr>       <int>
 1 ai            124
 2 students      120
 3 chatgpt        80
 4 tools          73
 5 academic       68
 6 policy         35
 7 assignments    34
 8 instructors    34
 9 integrity      33
10 student        32
# ℹ 1,098 more rows
…
Step 3: Tokenize Text Data and Apply Sentiment Dictionary

Tokenize the policy text data to separate individual words. Then, use the Bing sentiment dictionary to label each word as positive or negative.

# Tokenize 'Stance' column and apply Bing sentiment dictionary
sentiment_scores <- word_frequency %>%
  inner_join(get_sentiments("bing")) %>% # Join with Bing sentiment lexicon
  pivot_wider(names_from = sentiment, values_from = n, values_fill = 0) %>%
  mutate(sentiment_score = positive - negative) # Calculate net sentiment score

sentiment_scores

# A tibble: 142 × 4
   word         positive negative sentiment_score
   <chr>           <int>    <int>           <int>
 1 honor              18        0              18
 2 cheating            0       11             -11
 3 dishonesty          0       10             -10
 4 guidance            9        0               9
 5 honesty             7        0               7
 6 intelligence        7        0               7
 7 transparent         7        0               7
 8 violation           0        7              -7
 9 encourage           6        0               6
10 difficult           0        5              -5
# ℹ 132 more rows
…
Step 2: Prepare the Data

Load the data and create a document-term matrix (DTM) for topic modeling.

# Load the dataset
university_policies <- read_csv("University_GenAI_Policy_Stance.csv")

# Tokenize text data and count word frequencies
word_frequency <- university_policies %>%
  unnest_tokens(word, Stance) %>%  # same as section 2.3
  anti_join(stop_words) %>%             # Remove common stop words
  count(word, sort = TRUE)              # Count and sort words by frequency
word_frequency

# A tibble: 1,108 × 2
   word            n
   <chr>       <int>
 1 ai            124
 2 students      120
 3 chatgpt        80
 4 tools          73
 5 academic       68
 6 policy         35
 7 assignments    34
 8 instructors    34
 9 integrity      33
10 student        32
# ℹ 1,098 more rows
…
Fit an LDA model with k = 3 topics.

# Converting document-word frequency matrices to sparse matrices
gpt_dtm_sparse<- as(gpt_dtm, "matrix")

# Fit the LDA model
lda_model <- LDA(gpt_dtm_sparse, k = 3, control = list(seed = 1234))

# View model results
gpt_policy_topics_k3 <- tidy(lda_model, matrix = "beta")

print(gpt_policy_topics_k3)

# A tibble: 3,324 × 3
   topic term        beta
   <int> <chr>      <dbl>
 1     1 ai       0.0408 
 2     2 ai       0.00593
 3     3 ai       0.0650 
 4     1 students 0.0435 
 5     2 students 0.0635 
 6     3 students 0.0151 
 7     1 chatgpt  0.0396 
 8     2 chatgpt  0.0248 
 9     3 chatgpt  0.0126 
10     1 tools    0.0197 
# ℹ 3,314 more rows
…
